externalId,creditCards.1.ccNumber,creditCards.1.ccExpireDate,creditCards.1.paymentMethod,creditCards.2.ccNumber,creditCards.2.ccExpireDate,creditCards.2.paymentMethod
EID_CUST_TOUGH_1,0000000000000000,1/1/2017,8,0000000000000000,1/1/2015,7
EID_CUST_TOUGH_2,0000000000000000,1/1/2017,8,0000000000000000,1/1/2015,7
EID_CUST_TOUGH_3,0000000000000000,1/1/2017,8,0000000000000000,1/1/2015,7
EID_CUST_TOUGH_4,0000000000000000,2016-02-25T12:00:00-0700,8,0000000000000000,2016-02-25T12:00:00-0700,7
EID_CUST_TOUGH_5,0000000000000000,1/1/2017,8,0000000000000000,2016-02-25T12:00:00-0700,7