{
	"id": "4259abb6-f582-4bd2-b6c0-f79cd8c3dc1c",
	"name": "NetSuite REST API Environment Template",
	"values": [
		{
			"key": "account",
			"value": "<ACCOUNT>",
			"enabled": true
		},
		{
			"key": "consumerkey",
			"value": "<CONSUMER_KEY>",
			"enabled": true
		},
		{
			"key": "consumersecret",
			"value": "<CONSUMER_SECRET>",
			"enabled": true
		},
		{
			"key": "tokenid",
			"value": "<TOKEN_ID>",
			"enabled": true
		},
		{
			"key": "tokensecret",
			"value": "<TOKEN_SECRET>",
			"enabled": true
		},
		{
			"key": "nsdomain",
			"value": "netsuite.com",
			"enabled": true
		},
		{
			"key": "proto",
			"value": "https",
			"enabled": true
		},
		{
			"key": "suitetalkapi",
			"value": "suitetalk.api",
			"enabled": true
		},
		{
			"key": "host",
			"value": "{{account}}.{{suitetalkapi}}.{{nsdomain}}",
			"enabled": true
		},
		{
			"key": "restservice",
			"value": "rest/platform",
			"enabled": true
		},
		{
			"key": "version",
			"value": "v1",
			"enabled": true
		},
		{
			"key": "endpoint",
			"value": "{{proto}}://{{host}}/{{restservice}}/{{version}}",
			"enabled": true
		}
	],
	"_postman_variable_scope": "environment",
	"_postman_exported_at": "2019-06-15T15:05:01.882Z",
	"_postman_exported_using": "Postman/7.2.0"
}